Division,WeightClassKg,Place,Name,Team,BodyweightKg,Best3SquatKg,Best3BenchKg,Best3DeadliftKg,TotalKg,Equipment,Event,Sex
Boys,51.71,1,Kias Cooper,Center,51.26,142.88,72.57,138.35,353.8,Single-ply,SBD,M
Boys,51.71,2,Nahuel Lizardo,Jasper,48.99,102.06,49.9,99.79,251.74,Single-ply,SBD,M
Boys,51.71,3,Darren Shedd,Shelbyville,51.71,86.18,47.63,102.06,235.87,Single-ply,SBD,M
Boys,51.71,4,Paul Jones,Hemphill,51.71,83.91,54.43,90.72,229.06,Single-ply,SBD,M
Boys,51.71,5,Corey Frazier,Jasper,51.26,72.57,47.63,102.06,222.26,Single-ply,SBD,M
Boys,51.71,6,Trent Morgan,Kirbyville,47.63,72.57,40.82,74.84,188.24,Single-ply,SBD,M
Boys,55.79,1,Tyler West,Shelbyville,55.79,183.7,97.52,158.76,439.98,Single-ply,SBD,M
Boys,55.79,2,Flip Cauley,Kirbyville,55.79,113.4,74.84,124.74,312.98,Single-ply,SBD,M
Boys,55.79,3,Shannon Davis,Kirbyville,55.79,97.52,61.23,133.81,292.57,Single-ply,SBD,M
Boys,55.79,4,Ryan Myers #2,Kirbyville,55.79,90.72,56.7,95.25,242.67,Single-ply,SBD,M
Boys,59.87,1,Howard Watts,San Augustine,59.87,151.95,99.79,165.56,417.3,Single-ply,SBD,M
Boys,59.87,2,Armando Robles,Joaquin,58.97,151.95,86.18,158.76,396.89,Single-ply,SBD,M
Boys,59.87,3,Gerard Rhodes,Newton,59.87,145.15,65.77,149.69,360.61,Single-ply,SBD,M
Boys,59.87,4,Edgar Sanchez,Center,59.42,120.2,79.38,129.27,328.85,Single-ply,SBD,M
Boys,59.87,5,Aaron Shaddock,Hemphill,57.06,111.13,63.5,124.74,299.37,Single-ply,SBD,M
Boys,59.87,6,Brayan Ruiz,Center,58.97,104.33,56.7,124.74,285.76,Single-ply,SBD,M
Boys,59.87,7,Trenton Slaughter,Kirbyville,59.87,106.59,49.9,115.67,272.16,Single-ply,SBD,M
Boys,59.87,DQ,Bobby Bass,Newton,59.87,120.2,65.77,,,Single-ply,SBD,M
Boys,59.87,DQ,Bruce Barlow,San Augustine,58.97,151.95,,,,Single-ply,SBD,M
Boys,67.13,1,Decorian Smith,Kirbyville,66.22,172.37,108.86,240.4,521.63,Single-ply,SBD,M
Boys,67.13,2,Deroderick Hadnot,Jasper,63.5,190.51,115.67,185.97,492.15,Single-ply,SBD,M
Boys,67.13,3,Chance Mays,Jasper,66.68,183.7,90.72,204.12,478.54,Single-ply,SBD,M
Boys,67.13,4,Jordan Holsonback,Kirbyville,64.86,131.54,74.84,149.69,356.07,Single-ply,SBD,M
Boys,67.13,5,DeMarcus Newman,Newton,67.13,117.93,83.91,133.81,335.66,Single-ply,SBD,M
Boys,67.13,6,David Mitchell,Corrigan-Camden,64.55,122.47,70.31,136.08,328.85,Single-ply,SBD,M
Boys,67.13,7,Dustin Willett,Kirbyville,67.13,111.13,74.84,124.74,310.71,Single-ply,SBD,M
Boys,67.13,8,David Carlstrom,Kirbyville,67.13,92.99,52.16,92.99,238.14,Single-ply,SBD,M
Boys,67.13,DQ,Dennis Leh,Kirbyville,65.77,83.91,,,,Single-ply,SBD,M
Boys,74.84,1,Michael Byerly,Newton,74.84,204.12,131.54,210.92,546.58,Single-ply,SBD,M
Boys,74.84,2,Jace Thomas,Newton,74.84,190.51,117.93,226.8,535.24,Single-ply,SBD,M
Boys,74.84,3,Beau Burleson,Woodville,73.03,213.19,117.93,188.24,519.36,Single-ply,SBD,M
Boys,74.84,4,Justin Releford,Woodville,74.84,213.19,99.79,190.51,503.49,Single-ply,SBD,M
Boys,74.84,5,Garrett Stanley,Center,73.94,181.44,104.33,210.92,496.68,Single-ply,SBD,M
Boys,74.84,6,Jeremy Kennebrew,Kirbyville,74.84,188.24,113.4,176.9,478.54,Single-ply,SBD,M
Boys,74.84,7,Juan Cuevas,Corrigan-Camden,74.57,158.76,102.06,190.51,451.32,Single-ply,SBD,M
Boys,74.84,8,LeDarrion Newman,Newton,74.84,127.01,97.52,170.1,394.63,Single-ply,SBD,M
Boys,74.84,9,Hunter Cabral,Pineland West Sabine,74.84,154.22,83.91,147.42,385.55,Single-ply,SBD,M
Boys,74.84,10,Dillon Kroner,Kirbyville,74.84,136.08,70.31,158.76,365.14,Single-ply,SBD,M
Boys,74.84,11,Christian Boyett,Kirbyville,74.84,102.06,49.9,122.47,274.42,Single-ply,SBD,M
Boys,74.84,12,Cameron Brewster,Kirbyville,68.49,72.57,52.16,92.99,217.72,Single-ply,SBD,M
Boys,74.84,DQ,Brycton Hughey,Kirbyville,70.76,151.95,,,,Single-ply,SBD,M
Boys,74.84,DQ,Andrew Dean,Joaquin,74.84,183.7,,,,Single-ply,SBD,M
Boys,74.84,DQ,Aaron Hardy,Buna,72.12,172.37,102.06,,,Single-ply,SBD,M
Boys,82.1,1,Brandon Johnson,Newton,82.1,254.01,133.81,244.94,632.76,Single-ply,SBD,M
Boys,82.1,2,Kj Garrett,Center,80.74,215.46,124.74,231.33,571.53,Single-ply,SBD,M
Boys,82.1,3,Drew Diverdi,Center,77.56,183.7,120.2,215.46,519.36,Single-ply,SBD,M
Boys,82.1,4,Devonta Hawthorne,Jasper,78.93,195.04,136.08,188.24,519.36,Single-ply,SBD,M
Boys,82.1,5,Markeith Cauley,Jasper,80.74,197.31,117.93,204.12,519.36,Single-ply,SBD,M
Boys,82.1,6,Corey Mitchell,Woodville,81.19,181.44,115.67,215.46,512.56,Single-ply,SBD,M
Boys,82.1,7,Johnny Shaw,Center,79.38,181.44,86.18,226.8,494.42,Single-ply,SBD,M
Boys,82.1,8,Nick Stott,Jasper,81.65,165.56,115.67,176.9,458.13,Single-ply,SBD,M
Boys,82.1,9,Isaiah Goings,Jasper,81.65,151.95,115.67,183.7,451.32,Single-ply,SBD,M
Boys,82.1,10,John Kirbow,Kirbyville,75.75,147.42,79.38,181.44,408.23,Single-ply,SBD,M
Boys,82.1,11,Cody Pipes,Kirbyville,81.19,136.08,79.38,145.15,360.61,Single-ply,SBD,M
Boys,82.1,12,Wesley Evans,Hemphill,79.74,120.2,77.11,136.08,333.39,Single-ply,SBD,M
Boys,82.1,13,Chris McBride,Jasper,81.65,104.33,68.04,142.88,315.25,Single-ply,SBD,M
Boys,82.1,14,Chris Messner,Woodville,78.02,165.56,90.72,,256.28,Single-ply,SB,M
Boys,89.81,1,Kiounis Williams,Center,89.36,229.06,111.13,222.26,562.45,Single-ply,SBD,M
Boys,89.81,2,Nathan Sears,Center,87.09,215.46,138.35,204.12,557.92,Single-ply,SBD,M
Boys,89.81,3,Terrence Cuney,Jasper,89.81,208.65,145.15,204.12,557.92,Single-ply,SBD,M
Boys,89.81,4,Garrett Derouen,Woodville,88,201.85,129.27,199.58,530.7,Single-ply,SBD,M
Boys,89.81,5,Chedrick Hanks,Newton,89.81,199.58,120.2,206.38,526.17,Single-ply,SBD,M
Boys,89.81,6,Justin Mays,Jasper,89.36,204.12,115.67,197.31,517.1,Single-ply,SBD,M
Boys,89.81,7,Tra Rogers,Joaquin,89.81,192.78,102.06,206.38,501.22,Single-ply,SBD,M
Boys,89.81,8,DeAnthony Cuney,Jasper,88.45,179.17,138.35,172.37,489.88,Single-ply,SBD,M
Boys,89.81,9,Zack Conner,Newton,89.81,174.63,106.59,208.65,489.88,Single-ply,SBD,M
Boys,89.81,10,Isaiah Myers,Newton,89.81,172.37,99.79,195.04,467.2,Single-ply,SBD,M
Boys,89.81,11,Ryan Baggett,Hemphill,86.82,170.1,113.4,179.17,462.66,Single-ply,SBD,M
Boys,89.81,12,Calvin Burks,Corrigan-Camden,85.05,181.44,108.86,167.83,458.13,Single-ply,SBD,M
Boys,89.81,13,Blaine Rhodes,Kirbyville,85.73,165.56,88.45,192.78,446.79,Single-ply,SBD,M
Boys,89.81,14,MacKenzie Dockens,Center,84.82,170.1,92.99,181.44,444.52,Single-ply,SBD,M
Boys,89.81,15,Marcus Bell,Hemphill,88.63,142.88,115.67,179.17,437.72,Single-ply,SBD,M
Boys,89.81,16,Greg Miller,Hemphill,84.23,151.95,95.25,172.37,419.57,Single-ply,SBD,M
Boys,89.81,DQ,Zach Mason,Joaquin,88.45,219.99,115.67,,,Single-ply,SBD,M
Boys,99.79,1,Anthony Hadnot,Newton,99.79,238.14,117.93,233.6,589.67,Single-ply,SBD,M
Boys,99.79,2,Derrick Thomas,Center,97.07,206.38,113.4,238.14,557.92,Single-ply,SBD,M
Boys,99.79,3,Chris Valencia,Shelbyville,99.79,219.99,113.4,215.46,548.85,Single-ply,SBD,M
Boys,99.79,4,Nick Rhame,Buna,96.16,213.19,122.47,174.63,510.29,Single-ply,SBD,M
Boys,99.79,5,Aaron Smith,Pineland West Sabine,99.79,183.7,113.4,181.44,478.54,Single-ply,SBD,M
Boys,99.79,6,Tim Burley,Corrigan-Camden,97.98,185.97,97.52,185.97,469.47,Single-ply,SBD,M
Boys,99.79,7,William Simmons,Newton,99.79,154.22,86.18,167.83,408.23,Single-ply,SBD,M
Boys,99.79,DQ,Henry Guzman,Corrigan-Camden,91.81,204.12,104.33,,,Single-ply,SBD,M
Boys,109.77,1,Anthony Orr-Wade,Jasper,105.23,197.31,117.93,199.58,514.83,Single-ply,SBD,M
Boys,109.77,2,Trey Harris,Hemphill,105.28,183.7,113.4,204.12,501.22,Single-ply,SBD,M
Boys,109.77,3,Kevin Houston,Jasper,101.6,188.24,120.2,190.51,498.95,Single-ply,SBD,M
Boys,109.77,4,DaVincent Hoyt,Center,100.24,197.31,108.86,190.51,496.68,Single-ply,SBD,M
Boys,109.77,5,Keven Diggles,Newton,109.77,199.58,127.01,165.56,492.15,Single-ply,SBD,M
Boys,109.77,6,Jarrod Brooks,Kirbyville,103.42,165.56,88.45,181.44,435.45,Single-ply,SBD,M
Boys,109.77,7,Zach Wildes,Joaquin,106.59,204.12,113.4,,317.51,Single-ply,SB,M
Boys,109.77,DQ,Felix Johnson,Woodville,101.15,197.31,127.01,,,Single-ply,SB,M
Boys,124.74,1,Dj Parks,San Augustine,123.38,272.16,161.03,226.8,659.98,Single-ply,SBD,M
Boys,124.74,2,Austin Underbrink,Joaquin,123.83,249.48,176.9,206.38,632.76,Single-ply,SBD,M
Boys,124.74,3,Javaris Rankin,Center,111.58,249.48,138.35,222.26,610.08,Single-ply,SBD,M
Boys,124.74,4,Rhett Golden,Joaquin,117.03,238.14,142.88,204.12,585.13,Single-ply,SBD,M
Boys,124.74,5,Spencer Ince,Hemphill,119.84,190.51,138.35,210.92,539.77,Single-ply,SBD,M
Boys,124.74,6,Gayland Steubing,Warren,114.76,190.51,99.79,188.24,478.54,Single-ply,SBD,M
Boys,124.74,7,Blaise Manak,Buna,122.02,188.24,120.2,170.1,478.54,Single-ply,SBD,M
Boys,124.74,8,Dave Lewis,Newton,124.74,183.7,111.13,183.7,478.54,Single-ply,SBD,M
Boys,124.74,9,Dustin Bragg,Pineland West Sabine,124.74,197.31,97.52,170.1,464.93,Single-ply,SBD,M
Boys,124.74,10,Jason Cochran,Newton,124.74,158.76,74.84,165.56,399.16,Single-ply,SBD,M
Boys,124.74,11,Brent Simmons,Newton,124.74,167.83,83.91,142.88,394.63,Single-ply,SBD,M
Boys,124.74,12,Bobby Rhodes,Kirbyville,111.13,136.08,83.91,145.15,365.14,Single-ply,SBD,M
Boys,124.74,13,Bryce Powell,Kirbyville,112.04,111.13,63.5,133.81,308.44,Single-ply,SBD,M
Boys,124.74+,1,Jarvis Adams,Jasper,138.35,235.87,145.15,258.55,639.57,Single-ply,SBD,M
Boys,124.74+,2,Jeremy Turk,Kirbyville,129.27,235.87,142.88,229.06,607.81,Single-ply,SBD,M
Boys,124.74+,3,Jake Davis,San Augustine,131.09,208.65,131.54,199.58,539.77,Single-ply,SBD,M
Boys,124.74+,4,Brent Minter,Newton,141.97,226.8,111.13,188.24,526.17,Single-ply,SBD,M
Boys,124.74+,5,Ashton Limbrick,Jasper,131.54,204.12,127.01,183.7,514.83,Single-ply,SBD,M
Boys,124.74+,6,Jeremy Williams,Pineland West Sabine,135.62,197.31,83.91,167.83,449.06,Single-ply,SBD,M
Boys,124.74+,7,Lincoln Herrington,Newton,135.62,172.37,99.79,151.95,424.11,Single-ply,SBD,M
Boys,124.74+,8,Ryan Ford,Kirbyville,128.37,151.95,88.45,149.69,390.09,Single-ply,SBD,M
Boys,124.74+,9,Ethan Cole,Kirbyville,129.73,90.72,56.7,117.93,265.35,Single-ply,SBD,M
